[
  {
    "category": {
      "id": 16,
      "name": "RuangGuru"
    },
    "price": 0,
    "price_after_discount": 0,
    "active_period": {
      "id": 1,
      "name": "30 hari"
    },
    "is_free": true,
    "package_quota": "30 GB"
  },
  {
    "category": {
      "id": 17,
      "name": "Ilmupedia"
    },
    "price": 0,
    "price_after_discount": 0,
    "active_period": {
      "id": 1,
      "name": "30 hari"
    },
    "is_free": true,
    "package_quota": "30 GB"
  },
  {
    "category": {
      "id": 17,
      "name": "Ilmupedia"
    },
    "price": 25000,
    "price_after_discount": 0,
    "active_period": {
      "id": 1,
      "name": "30 hari"
    },
    "is_free": false,
    "package_quota": "3 GB"
  },
  {
    "category": {
      "id": 18,
      "name": "Cakap"
    },
    "price": 30000,
    "price_after_discount": 0,
    "active_period": {
      "id": 1,
      "name": "30 hari"
    },
    "is_free": false,
    "package_quota": "5 GB"
  }
]
