[
  {
    "category": {
      "id": 1,
      "name": "Internet OMG!"
    },
    "price": 63000,
    "price_after_discount": 61000,
    "active_period": {
      "id": "1",
      "name": "30 hari"
    },
    "is_free": false,
    "package_quota": "14 GB"
  }
]
